%YAML 1.1
%TAG !u! tag:unity3d.com,2011:
--- !u!1045 &1
EditorBuildSettings:
  m_ObjectHideFlags: 0
  serializedVersion: 2
  m_Scenes:
  - enabled: 1
    path: Assets/_Internal/Scenes/Menus/Menu.unity
    guid: 5e7e667890c40654197b0a479a7ae921
  - enabled: 1
    path: Assets/_Internal/Scenes/Fases/Level1.unity
    guid: 00906c62f23d1ad43aaae4669fad808f
  - enabled: 1
    path: Assets/_Internal/Scenes/Fases/Level2.unity
    guid: 4d76052554ffaad40aa75ff5a4743bb9
  - enabled: 1
    path: Assets/_Internal/Scenes/Menus/Final.unity
    guid: 8b271867606137f47b5825b3331c9361
  m_configObjects: {}
